0.0764 -0.06384  0.1968
0.07712 -0.06512  0.19736
0.07792 -0.06456  0.19688
0.07872 -0.06408  0.19696
0.07952 -0.06528  0.19864
0.07944 -0.06432  0.19784
0.07936 -0.06416  0.19664
0.0796 -0.06448  0.19792
0.07912 -0.0644  0.1964
0.07976 -0.06456  0.19728
0.08048 -0.06496  0.19704
0.08 -0.06456  0.19912
0.08016 -0.06432  0.19904
0.08008 -0.06424  0.19664
0.07992 -0.0648  0.19744
0.07976 -0.06552  0.19728
0.07936 -0.06496  0.19744
0.07944 -0.06424  0.19608
0.07656 -0.06384  0.19576
0.07808 -0.06352  0.19616
0.07736 -0.0648  0.19352
0.07648 -0.06776  0.1944
0.0976 -0.046  0.19368
0.09688 -0.04792  0.19752
0.0 0.0  0.0
0.0 0.0  0.0
0.0 0.0  0.0
0.10008 -0.04304  0.19496
0.09992 -0.04336  0.19504
0.10008 -0.04304  0.19512
0.1 -0.04376  0.19712
0.10184 -0.0432  0.19648
0.10136 -0.04312  0.19872
0.10176 -0.04296  0.19664
0.10224 -0.04296  0.19712
0.10192 -0.04304  0.19736
0.10192 -0.04312  0.19696
0.10216 -0.0428  0.19776
0.10144 -0.04352  0.19856
0.10168 -0.0424  0.19776
0.10128 -0.04232  0.19584
0.1012 -0.04288  0.198
0.10152 -0.04272  0.19624
0.10136 -0.04232  0.19832
0.10184 -0.04296  0.19656
